[
    {
        "changeConfiguration": "False", 
        "deviceId": 1, 
        "sensors": [
            {
                "sensorId": 15, 
                "sensorParameters": {
                    "datastreamId": {
                        "humidity": 2, 
                        "temperature": 1
                    }, 
                    "sensorOn": "True"
                }, 
                "sensorType": "dht11"
            }, 
            {
                "sensorId": 16, 
                "sensorParameters": {
                    "datastreamId": {
                        "movement": 3
                    }, 
                    "sensorOn": "True"
                }, 
                "sensorType": "biss0001"
            }, 
            {
                "sensorId": 5122, 
                "sensorParameters": {
                    "datastreamId": {
                        "devices_count": 4
                    }, 
                    "sensorOn": "True"
                }, 
                "sensorType": "bluetooth"
            }
        ]
    }, 
    {
        "changeConfiguration": "False", 
        "deviceId": 5547, 
        "sensors": [
            {
                "sensorId": 4, 
                "sensorParameters": {
                    "datastreamId": {
                        "humidity": 6, 
                        "temperature": 5
                    }, 
                    "sensorOn": "False"
                }, 
                "sensorType": "dht11"
            }, 
            {
                "sensorId": 1594, 
                "sensorParameters": {
                    "datastreamId": {
                        "movement": 7
                    }, 
                    "sensorOn": "True"
                }, 
                "sensorType": "biss0001"
            }, 
            {
                "sensorId": 5122, 
                "sensorParameters": {
                    "datastreamId": {
                        "devices_count": 8
                    }, 
                    "sensorOn": "True"
                }, 
                "sensorType": "bluetooth"
            }
        ]
    }
]